%YAML 1.1
%TAG !u! tag:unity3d.com,2011:
--- !u!1045 &1
EditorBuildSettings:
  m_ObjectHideFlags: 0
  serializedVersion: 2
  m_Scenes:
  - enabled: 1
    path: Assets/OniriaTimes.unity
    guid: dbe56ce466864439ab949ac1db292e75
  m_configObjects: {}
