%YAML 1.1
%TAG !u! tag:unity3d.com,2011:
--- !u!1001 &100100000
Prefab:
  m_ObjectHideFlags: 1
  serializedVersion: 2
  m_Modification:
    m_TransformParent: {fileID: 0}
    m_Modifications: []
    m_RemovedComponents: []
  m_ParentPrefab: {fileID: 0}
  m_RootGameObject: {fileID: 1869820308653824}
  m_IsPrefabParent: 1
--- !u!1 &1869820308653824
GameObject:
  m_ObjectHideFlags: 0
  m_PrefabParentObject: {fileID: 0}
  m_PrefabInternal: {fileID: 100100000}
  serializedVersion: 5
  m_Component:
  - component: {fileID: 4421825103242202}
  - component: {fileID: 114098854370824304}
  m_Layer: 0
  m_Name: NewsItemLong
  m_TagString: Untagged
  m_Icon: {fileID: 0}
  m_NavMeshLayer: 0
  m_StaticEditorFlags: 0
  m_IsActive: 1
--- !u!4 &4421825103242202
Transform:
  m_ObjectHideFlags: 1
  m_PrefabParentObject: {fileID: 0}
  m_PrefabInternal: {fileID: 100100000}
  m_GameObject: {fileID: 1869820308653824}
  m_LocalRotation: {x: -0, y: -0, z: -0, w: 1}
  m_LocalPosition: {x: 0, y: 0, z: 0}
  m_LocalScale: {x: 1, y: 1, z: 1}
  m_Children: []
  m_Father: {fileID: 0}
  m_RootOrder: 0
  m_LocalEulerAnglesHint: {x: 0, y: 0, z: 0}
--- !u!114 &114098854370824304
MonoBehaviour:
  m_ObjectHideFlags: 1
  m_PrefabParentObject: {fileID: 0}
  m_PrefabInternal: {fileID: 100100000}
  m_GameObject: {fileID: 1869820308653824}
  m_Enabled: 1
  m_EditorHideFlags: 0
  m_Script: {fileID: 11500000, guid: bb860926fe9712240a982aa798df1654, type: 3}
  m_Name: 
  m_EditorClassIdentifier: 
  title: ONIRIA TIMES IS PREPARING TO LAUNCH!!
  body: We are preparing our first number to publish news about Oniria. Be prepared
    for an amazing amount of information. It will be very interesting, all onironauts
    will be anxious to read our newspaper!! First number will be out in 48 hours...
    well, a bit less. In this game you will be responsible of running a newspaper.
    But beware! You will be running out of space and you'll have to choose wisely
    wich news you want to publish!
  money: 0
  reputation: 0
  longNewsItem: 1
